<svg width="15" height="16" viewBox="0 0 15 16" fill="none" xmlns="http://www.w3.org/2000/svg">
<path d="M13.6417 4.4L13.65 4.39167L10.55 1.29167L9.66667 2.175L11.425 3.93333C10.6417 4.23333 10.0833 4.98333 10.0833 5.875C10.0833 7.025 11.0167 7.95833 12.1667 7.95833C12.4667 7.95833 12.7417 7.89167 13 7.78333V13.7917C13 14.25 12.625 14.625 12.1667 14.625C11.7083 14.625 11.3333 14.25 11.3333 13.7917V10.0417C11.3333 9.125 10.5833 8.375 9.66667 8.375H8.83333V2.54167C8.83333 1.625 8.08333 0.875 7.16667 0.875H2.16667C1.25 0.875 0.5 1.625 0.5 2.54167V15.875H8.83333V9.625H10.0833V13.7917C10.0833 14.9417 11.0167 15.875 12.1667 15.875C13.3167 15.875 14.25 14.9417 14.25 13.7917V5.875C14.25 5.3 14.0167 4.775 13.6417 4.4ZM7.16667 6.70833H2.16667V2.54167H7.16667V6.70833ZM12.1667 6.70833C11.7083 6.70833 11.3333 6.33333 11.3333 5.875C11.3333 5.41667 11.7083 5.04167 12.1667 5.04167C12.625 5.04167 13 5.41667 13 5.875C13 6.33333 12.625 6.70833 12.1667 6.70833Z" fill="#97A1B3"/>
</svg>
